Starting with 128 initial points.
0.987602 0 1
1
1.00211 0.987602 0.0144768
2
0.997083 1.00211 0.0050404
3
0.993533 0.997083 0.00357383
4
0.993531 0.993533 2.19432e-06
5
0.996156 0.993531 0.00263553
6
0.993365 0.996156 0.00280997
7
0.989064 0.993365 0.00434797
8
0.99675 0.989064 0.00771104
9
0.995633 0.99675 0.00112244
10
0.996408 0.995633 0.000777681
11
0.995321 0.996408 0.00109203
12
0.995137 0.995321 0.000184388
13
0.995053 0.995137 8.42892e-05
14
0.995128 0.995053 7.50683e-05
15
0.99537 0.995128 0.000242724
16
0.995384 0.99537 1.49722e-05
17
0.995397 0.995384 1.26675e-05
18
0.995359 0.995397 3.80817e-05
19
0.995377 0.995359 1.82203e-05
20
0.995323 0.995377 5.41617e-05
21
0.995334 0.995323 1.0656e-05
22
0.995322 0.995334 1.17732e-05
23
0.995301 0.995322 2.12635e-05

